{"v":0,"level":30,"name":"newrelic","hostname":"vorachets-iMac.local","pid":55744,"time":"2019-05-07T09:22:20.882Z","msg":"Using New Relic for Node.js. Agent version: 5.8.0; Node version: v10.15.0."}
{"v":0,"level":30,"name":"newrelic","hostname":"vorachets-iMac.local","pid":55744,"time":"2019-05-07T09:22:21.315Z","msg":"Starting New Relic for Node.js connection process."}
{"v":0,"level":30,"name":"newrelic","hostname":"vorachets-iMac.local","pid":55744,"time":"2019-05-07T09:22:30.689Z","msg":"Connected to collector-009.newrelic.com:443 with agent run ID BMo65Oyt-vAbAAgt_xFCduZc0U6wAAgBAAAjHQECBABJSgwDAAU1LjguMAAUdm9yYWNoZXRzLWlNYWMubG9jYWwABUlPRG9j.","component":"collector_api"}
{"v":0,"level":30,"name":"newrelic","hostname":"vorachets-iMac.local","pid":55744,"time":"2019-05-07T09:22:30.690Z","msg":"Reporting to: https://rpm.newrelic.com/accounts/536063/applications/4803084","component":"collector_api"}
{"v":0,"level":30,"name":"newrelic","hostname":"vorachets-iMac.local","pid":56594,"time":"2019-05-07T09:53:58.441Z","msg":"Using New Relic for Node.js. Agent version: 5.8.0; Node version: v10.15.0."}
{"v":0,"level":30,"name":"newrelic","hostname":"vorachets-iMac.local","pid":56594,"time":"2019-05-07T09:53:58.853Z","msg":"Starting New Relic for Node.js connection process."}
{"v":0,"level":30,"name":"newrelic","hostname":"vorachets-iMac.local","pid":56594,"time":"2019-05-07T09:54:07.173Z","msg":"Connected to collector-009.newrelic.com:443 with agent run ID BCFoWGO4jT2wAAgt_xFCduZc0VYwAAgBAAAjHQECBABJSgwDAAU1LjguMAAUdm9yYWNoZXRzLWlNYWMubG9jYWwABUlPRG9j.","component":"collector_api"}
{"v":0,"level":30,"name":"newrelic","hostname":"vorachets-iMac.local","pid":56594,"time":"2019-05-07T09:54:07.174Z","msg":"Reporting to: https://rpm.newrelic.com/accounts/536063/applications/4803084","component":"collector_api"}
{"v":0,"level":30,"name":"newrelic","hostname":"vorachets-iMac.local","pid":41241,"time":"2019-05-10T14:09:33.816Z","msg":"Using New Relic for Node.js. Agent version: 5.8.0; Node version: v10.15.0."}
{"v":0,"level":30,"name":"newrelic","hostname":"vorachets-iMac.local","pid":41241,"time":"2019-05-10T14:09:34.273Z","msg":"Starting New Relic for Node.js connection process."}
{"v":0,"level":30,"name":"newrelic","hostname":"vorachets-iMac.local","pid":41241,"time":"2019-05-10T14:09:46.233Z","msg":"Connected to collector-009.newrelic.com:443 with agent run ID BMzQU137U27DAAgt_xFCduZc1YZ0AAgBAAAjHQECBABJSgwDAAU1LjguMAAUdm9yYWNoZXRzLWlNYWMubG9jYWwABUlPRG9j.","component":"collector_api"}
{"v":0,"level":30,"name":"newrelic","hostname":"vorachets-iMac.local","pid":41241,"time":"2019-05-10T14:09:46.233Z","msg":"Reporting to: https://rpm.newrelic.com/accounts/536063/applications/4803084","component":"collector_api"}
{"v":0,"level":30,"name":"newrelic","hostname":"vorachets-iMac.local","pid":46932,"time":"2019-05-10T16:29:16.390Z","msg":"Using New Relic for Node.js. Agent version: 5.8.0; Node version: v10.15.0."}
{"v":0,"level":30,"name":"newrelic","hostname":"vorachets-iMac.local","pid":46932,"time":"2019-05-10T16:29:16.755Z","msg":"Starting New Relic for Node.js connection process."}
{"v":0,"level":30,"name":"newrelic","hostname":"vorachets-iMac.local","pid":46932,"time":"2019-05-10T16:29:26.549Z","msg":"Connected to collector-009.newrelic.com:443 with agent run ID BHIqIqSqCLeOAAgt_xFCduZc1adEAAgBAAAjHQECBABJSgwDAAU1LjguMAAUdm9yYWNoZXRzLWlNYWMubG9jYWwABUlPRG9j.","component":"collector_api"}
{"v":0,"level":30,"name":"newrelic","hostname":"vorachets-iMac.local","pid":46932,"time":"2019-05-10T16:29:26.549Z","msg":"Reporting to: https://rpm.newrelic.com/accounts/536063/applications/4803084","component":"collector_api"}
{"v":0,"level":30,"name":"newrelic","hostname":"SatieMBP.local","pid":48981,"time":"2020-01-16T13:37:24.779Z","msg":"Using New Relic for Node.js. Agent version: 5.8.0; Node version: v12.14.1."}
{"v":0,"level":40,"name":"newrelic","hostname":"SatieMBP.local","pid":48981,"time":"2020-01-16T13:37:24.781Z","msg":"New Relic for Node.js 5.8.0 has not been tested on Node.js v12.14.1. Please update the agent or downgrade your version of Node.js"}
{"v":0,"level":30,"name":"newrelic","hostname":"SatieMBP.local","pid":48981,"time":"2020-01-16T13:37:24.982Z","msg":"Starting New Relic for Node.js connection process."}
{"v":0,"level":30,"name":"newrelic","hostname":"SatieMBP.local","pid":49310,"time":"2020-01-16T13:39:15.636Z","msg":"Using New Relic for Node.js. Agent version: 5.8.0; Node version: v12.14.1."}
{"v":0,"level":40,"name":"newrelic","hostname":"SatieMBP.local","pid":49310,"time":"2020-01-16T13:39:15.638Z","msg":"New Relic for Node.js 5.8.0 has not been tested on Node.js v12.14.1. Please update the agent or downgrade your version of Node.js"}
{"v":0,"level":30,"name":"newrelic","hostname":"SatieMBP.local","pid":49310,"time":"2020-01-16T13:39:15.865Z","msg":"Starting New Relic for Node.js connection process."}
{"v":0,"level":30,"name":"newrelic","hostname":"SatieMBP.local","pid":49628,"time":"2020-01-16T13:41:06.516Z","msg":"Using New Relic for Node.js. Agent version: 5.8.0; Node version: v12.14.1."}
{"v":0,"level":40,"name":"newrelic","hostname":"SatieMBP.local","pid":49628,"time":"2020-01-16T13:41:06.518Z","msg":"New Relic for Node.js 5.8.0 has not been tested on Node.js v12.14.1. Please update the agent or downgrade your version of Node.js"}
{"v":0,"level":30,"name":"newrelic","hostname":"SatieMBP.local","pid":49628,"time":"2020-01-16T13:41:06.739Z","msg":"Starting New Relic for Node.js connection process."}
{"v":0,"level":30,"name":"newrelic","hostname":"SatieMBP.local","pid":49628,"time":"2020-01-16T13:41:11.308Z","msg":"Connected to collector-009.newrelic.com:443 with agent run ID BXHeoV70otX8AAgt_x_dS8VeIGhkAAgBAAAnIQEAAMHcAgQASUoMAwAFNS44LjAADlNhdGllTUJQLmxvY2FsAAVJT0RvYw.","component":"collector_api"}
{"v":0,"level":30,"name":"newrelic","hostname":"SatieMBP.local","pid":49628,"time":"2020-01-16T13:41:11.308Z","msg":"Reporting to: https://rpm.newrelic.com/accounts/536063/applications/4803084","component":"collector_api"}
{"v":0,"level":50,"name":"newrelic","hostname":"SatieMBP.local","pid":49628,"time":"2020-01-16T23:46:10.620Z","msg":"Agent endpoint metric_data returned 409 status. Restarting.","component":"collector_api"}
{"v":0,"level":30,"name":"newrelic","hostname":"SatieMBP.local","pid":49628,"time":"2020-01-16T23:46:11.707Z","msg":"Disconnected from New Relic; clearing run ID BXHeoV70otX8AAgt_x_dS8VeIGhkAAgBAAAnIQEAAMHcAgQASUoMAwAFNS44LjAADlNhdGllTUJQLmxvY2FsAAVJT0RvYw.","component":"collector_api"}
{"v":0,"level":30,"name":"newrelic","hostname":"SatieMBP.local","pid":49628,"time":"2020-01-16T23:46:17.789Z","msg":"Connected to collector-009.newrelic.com:443 with agent run ID BW4_RxCANdNLAAgt_x_dS8VeIPYwAAgBAAAnIQEAAMHcAgQASUoMAwAFNS44LjAADlNhdGllTUJQLmxvY2FsAAVJT0RvYw.","component":"collector_api"}
{"v":0,"level":30,"name":"newrelic","hostname":"SatieMBP.local","pid":49628,"time":"2020-01-16T23:46:17.790Z","msg":"Reporting to: https://rpm.newrelic.com/accounts/536063/applications/4803084","component":"collector_api"}
{"v":0,"level":40,"name":"newrelic","hostname":"SatieMBP.local","pid":49628,"time":"2020-01-17T00:33:55.697Z","msg":"Errors during harvest!","component":"Harvest","errors":[{"errno":"ENOTFOUND","code":"ENOTFOUND","syscall":"getaddrinfo","hostname":"collector-009.newrelic.com"}]}
{"v":0,"level":40,"name":"newrelic","hostname":"collector-009.newrelic.com","pid":49628,"time":"2020-01-17T00:33:55.703Z","msg":"Error on submission to New Relic.","errno":"ENOTFOUND","code":"ENOTFOUND","syscall":"getaddrinfo","stack":"Error: getaddrinfo ENOTFOUND collector-009.newrelic.com\n    at GetAddrInfoReqWrap.onlookup [as oncomplete] (dns.js:60:26)","message":"getaddrinfo ENOTFOUND collector-009.newrelic.com"}
{"v":0,"level":40,"name":"newrelic","hostname":"SatieMBP.local","pid":49628,"time":"2020-01-17T01:04:01.648Z","msg":"Errors during harvest!","component":"Harvest","errors":[{"errno":"ENOTFOUND","code":"ENOTFOUND","syscall":"getaddrinfo","hostname":"collector-009.newrelic.com"}]}
{"v":0,"level":40,"name":"newrelic","hostname":"collector-009.newrelic.com","pid":49628,"time":"2020-01-17T01:04:01.648Z","msg":"Error on submission to New Relic.","errno":"ENOTFOUND","code":"ENOTFOUND","syscall":"getaddrinfo","stack":"Error: getaddrinfo ENOTFOUND collector-009.newrelic.com\n    at GetAddrInfoReqWrap.onlookup [as oncomplete] (dns.js:60:26)","message":"getaddrinfo ENOTFOUND collector-009.newrelic.com"}
{"v":0,"level":40,"name":"newrelic","hostname":"SatieMBP.local","pid":49628,"time":"2020-01-17T01:34:00.886Z","msg":"Errors during harvest!","component":"Harvest","errors":[{"errno":"ENOTFOUND","code":"ENOTFOUND","syscall":"getaddrinfo","hostname":"collector-009.newrelic.com"}]}
{"v":0,"level":40,"name":"newrelic","hostname":"collector-009.newrelic.com","pid":49628,"time":"2020-01-17T01:34:00.886Z","msg":"Error on submission to New Relic.","errno":"ENOTFOUND","code":"ENOTFOUND","syscall":"getaddrinfo","stack":"Error: getaddrinfo ENOTFOUND collector-009.newrelic.com\n    at GetAddrInfoReqWrap.onlookup [as oncomplete] (dns.js:60:26)","message":"getaddrinfo ENOTFOUND collector-009.newrelic.com"}
{"v":0,"level":40,"name":"newrelic","hostname":"SatieMBP.local","pid":49628,"time":"2020-01-17T01:52:49.571Z","msg":"Errors during harvest!","component":"Harvest","errors":[{"errno":"ECONNREFUSED","code":"ECONNREFUSED","syscall":"connect","address":"162.247.242.14","port":443}]}
{"v":0,"level":40,"name":"newrelic","hostname":"SatieMBP.local","pid":49628,"time":"2020-01-17T01:52:49.571Z","msg":"Error on submission to New Relic.","errno":"ECONNREFUSED","code":"ECONNREFUSED","syscall":"connect","address":"162.247.242.14","port":443,"stack":"Error: connect ECONNREFUSED 162.247.242.14:443\n    at TCPConnectWrap.afterConnect [as oncomplete] (net.js:1134:16)","message":"connect ECONNREFUSED 162.247.242.14:443"}
{"v":0,"level":40,"name":"newrelic","hostname":"SatieMBP.local","pid":49628,"time":"2020-01-17T01:53:49.555Z","msg":"Errors during harvest!","component":"Harvest","errors":[{"errno":"ECONNREFUSED","code":"ECONNREFUSED","syscall":"connect","address":"162.247.242.14","port":443}]}
{"v":0,"level":40,"name":"newrelic","hostname":"SatieMBP.local","pid":49628,"time":"2020-01-17T01:53:49.555Z","msg":"Error on submission to New Relic.","errno":"ECONNREFUSED","code":"ECONNREFUSED","syscall":"connect","address":"162.247.242.14","port":443,"stack":"Error: connect ECONNREFUSED 162.247.242.14:443\n    at TCPConnectWrap.afterConnect [as oncomplete] (net.js:1134:16)","message":"connect ECONNREFUSED 162.247.242.14:443"}
{"v":0,"level":40,"name":"newrelic","hostname":"SatieMBP.local","pid":49628,"time":"2020-01-17T01:54:49.571Z","msg":"Errors during harvest!","component":"Harvest","errors":[{"errno":"ECONNREFUSED","code":"ECONNREFUSED","syscall":"connect","address":"162.247.242.14","port":443}]}
{"v":0,"level":40,"name":"newrelic","hostname":"SatieMBP.local","pid":49628,"time":"2020-01-17T01:54:49.572Z","msg":"Error on submission to New Relic.","errno":"ECONNREFUSED","code":"ECONNREFUSED","syscall":"connect","address":"162.247.242.14","port":443,"stack":"Error: connect ECONNREFUSED 162.247.242.14:443\n    at TCPConnectWrap.afterConnect [as oncomplete] (net.js:1134:16)","message":"connect ECONNREFUSED 162.247.242.14:443"}
{"v":0,"level":40,"name":"newrelic","hostname":"SatieMBP.local","pid":49628,"time":"2020-01-17T01:55:49.608Z","msg":"Errors during harvest!","component":"Harvest","errors":[{"errno":"ECONNREFUSED","code":"ECONNREFUSED","syscall":"connect","address":"162.247.242.14","port":443}]}
{"v":0,"level":40,"name":"newrelic","hostname":"SatieMBP.local","pid":49628,"time":"2020-01-17T01:55:49.608Z","msg":"Error on submission to New Relic.","errno":"ECONNREFUSED","code":"ECONNREFUSED","syscall":"connect","address":"162.247.242.14","port":443,"stack":"Error: connect ECONNREFUSED 162.247.242.14:443\n    at TCPConnectWrap.afterConnect [as oncomplete] (net.js:1134:16)","message":"connect ECONNREFUSED 162.247.242.14:443"}
{"v":0,"level":40,"name":"newrelic","hostname":"SatieMBP.local","pid":49628,"time":"2020-01-17T01:56:49.699Z","msg":"Errors during harvest!","component":"Harvest","errors":[{"errno":"ECONNREFUSED","code":"ECONNREFUSED","syscall":"connect","address":"162.247.242.28","port":443}]}
{"v":0,"level":40,"name":"newrelic","hostname":"SatieMBP.local","pid":49628,"time":"2020-01-17T01:56:49.699Z","msg":"Error on submission to New Relic.","errno":"ECONNREFUSED","code":"ECONNREFUSED","syscall":"connect","address":"162.247.242.28","port":443,"stack":"Error: connect ECONNREFUSED 162.247.242.28:443\n    at TCPConnectWrap.afterConnect [as oncomplete] (net.js:1134:16)","message":"connect ECONNREFUSED 162.247.242.28:443"}
{"v":0,"level":40,"name":"newrelic","hostname":"SatieMBP.local","pid":49628,"time":"2020-01-17T01:57:49.579Z","msg":"Errors during harvest!","component":"Harvest","errors":[{"errno":"ECONNREFUSED","code":"ECONNREFUSED","syscall":"connect","address":"162.247.242.28","port":443}]}
{"v":0,"level":40,"name":"newrelic","hostname":"SatieMBP.local","pid":49628,"time":"2020-01-17T01:57:49.579Z","msg":"Error on submission to New Relic.","errno":"ECONNREFUSED","code":"ECONNREFUSED","syscall":"connect","address":"162.247.242.28","port":443,"stack":"Error: connect ECONNREFUSED 162.247.242.28:443\n    at TCPConnectWrap.afterConnect [as oncomplete] (net.js:1134:16)","message":"connect ECONNREFUSED 162.247.242.28:443"}
{"v":0,"level":40,"name":"newrelic","hostname":"SatieMBP.local","pid":49628,"time":"2020-01-17T01:58:49.586Z","msg":"Errors during harvest!","component":"Harvest","errors":[{"errno":"ECONNREFUSED","code":"ECONNREFUSED","syscall":"connect","address":"162.247.242.28","port":443}]}
{"v":0,"level":40,"name":"newrelic","hostname":"SatieMBP.local","pid":49628,"time":"2020-01-17T01:58:49.586Z","msg":"Error on submission to New Relic.","errno":"ECONNREFUSED","code":"ECONNREFUSED","syscall":"connect","address":"162.247.242.28","port":443,"stack":"Error: connect ECONNREFUSED 162.247.242.28:443\n    at TCPConnectWrap.afterConnect [as oncomplete] (net.js:1134:16)","message":"connect ECONNREFUSED 162.247.242.28:443"}
{"v":0,"level":40,"name":"newrelic","hostname":"SatieMBP.local","pid":49628,"time":"2020-01-17T01:59:49.578Z","msg":"Errors during harvest!","component":"Harvest","errors":[{"errno":"ECONNREFUSED","code":"ECONNREFUSED","syscall":"connect","address":"162.247.242.28","port":443}]}
{"v":0,"level":40,"name":"newrelic","hostname":"SatieMBP.local","pid":49628,"time":"2020-01-17T01:59:49.579Z","msg":"Error on submission to New Relic.","errno":"ECONNREFUSED","code":"ECONNREFUSED","syscall":"connect","address":"162.247.242.28","port":443,"stack":"Error: connect ECONNREFUSED 162.247.242.28:443\n    at TCPConnectWrap.afterConnect [as oncomplete] (net.js:1134:16)","message":"connect ECONNREFUSED 162.247.242.28:443"}
{"v":0,"level":40,"name":"newrelic","hostname":"SatieMBP.local","pid":49628,"time":"2020-01-17T02:03:49.584Z","msg":"Errors during harvest!","component":"Harvest","errors":[{"errno":"ECONNREFUSED","code":"ECONNREFUSED","syscall":"connect","address":"162.247.242.14","port":443}]}
{"v":0,"level":40,"name":"newrelic","hostname":"SatieMBP.local","pid":49628,"time":"2020-01-17T02:03:49.584Z","msg":"Error on submission to New Relic.","errno":"ECONNREFUSED","code":"ECONNREFUSED","syscall":"connect","address":"162.247.242.14","port":443,"stack":"Error: connect ECONNREFUSED 162.247.242.14:443\n    at TCPConnectWrap.afterConnect [as oncomplete] (net.js:1134:16)","message":"connect ECONNREFUSED 162.247.242.14:443"}
{"v":0,"level":40,"name":"newrelic","hostname":"SatieMBP.local","pid":49628,"time":"2020-01-17T04:27:31.010Z","msg":"Errors during harvest!","component":"Harvest","errors":[{"errno":"ENOTFOUND","code":"ENOTFOUND","syscall":"getaddrinfo","hostname":"collector-009.newrelic.com"}]}
{"v":0,"level":40,"name":"newrelic","hostname":"collector-009.newrelic.com","pid":49628,"time":"2020-01-17T04:27:31.018Z","msg":"Error on submission to New Relic.","errno":"ENOTFOUND","code":"ENOTFOUND","syscall":"getaddrinfo","stack":"Error: getaddrinfo ENOTFOUND collector-009.newrelic.com\n    at GetAddrInfoReqWrap.onlookup [as oncomplete] (dns.js:60:26)","message":"getaddrinfo ENOTFOUND collector-009.newrelic.com"}
{"v":0,"level":40,"name":"newrelic","hostname":"SatieMBP.local","pid":49628,"time":"2020-01-17T05:44:35.240Z","msg":"Errors during harvest!","component":"Harvest","errors":[{"errno":"ENOTFOUND","code":"ENOTFOUND","syscall":"getaddrinfo","hostname":"collector-009.newrelic.com"}]}
{"v":0,"level":40,"name":"newrelic","hostname":"collector-009.newrelic.com","pid":49628,"time":"2020-01-17T05:44:35.240Z","msg":"Error on submission to New Relic.","errno":"ENOTFOUND","code":"ENOTFOUND","syscall":"getaddrinfo","stack":"Error: getaddrinfo ENOTFOUND collector-009.newrelic.com\n    at GetAddrInfoReqWrap.onlookup [as oncomplete] (dns.js:60:26)","message":"getaddrinfo ENOTFOUND collector-009.newrelic.com"}
{"v":0,"level":40,"name":"newrelic","hostname":"SatieMBP.local","pid":49628,"time":"2020-01-17T05:45:35.243Z","msg":"Errors during harvest!","component":"Harvest","errors":[{"errno":"ENOTFOUND","code":"ENOTFOUND","syscall":"getaddrinfo","hostname":"collector-009.newrelic.com"}]}
{"v":0,"level":40,"name":"newrelic","hostname":"collector-009.newrelic.com","pid":49628,"time":"2020-01-17T05:45:35.243Z","msg":"Error on submission to New Relic.","errno":"ENOTFOUND","code":"ENOTFOUND","syscall":"getaddrinfo","stack":"Error: getaddrinfo ENOTFOUND collector-009.newrelic.com\n    at GetAddrInfoReqWrap.onlookup [as oncomplete] (dns.js:60:26)","message":"getaddrinfo ENOTFOUND collector-009.newrelic.com"}
{"v":0,"level":40,"name":"newrelic","hostname":"SatieMBP.local","pid":49628,"time":"2020-01-17T05:46:35.247Z","msg":"Errors during harvest!","component":"Harvest","errors":[{"errno":"ENOTFOUND","code":"ENOTFOUND","syscall":"getaddrinfo","hostname":"collector-009.newrelic.com"}]}
{"v":0,"level":40,"name":"newrelic","hostname":"collector-009.newrelic.com","pid":49628,"time":"2020-01-17T05:46:35.248Z","msg":"Error on submission to New Relic.","errno":"ENOTFOUND","code":"ENOTFOUND","syscall":"getaddrinfo","stack":"Error: getaddrinfo ENOTFOUND collector-009.newrelic.com\n    at GetAddrInfoReqWrap.onlookup [as oncomplete] (dns.js:60:26)","message":"getaddrinfo ENOTFOUND collector-009.newrelic.com"}
{"v":0,"level":40,"name":"newrelic","hostname":"SatieMBP.local","pid":49628,"time":"2020-01-17T05:47:35.252Z","msg":"Errors during harvest!","component":"Harvest","errors":[{"errno":"ENOTFOUND","code":"ENOTFOUND","syscall":"getaddrinfo","hostname":"collector-009.newrelic.com"}]}
{"v":0,"level":40,"name":"newrelic","hostname":"collector-009.newrelic.com","pid":49628,"time":"2020-01-17T05:47:35.252Z","msg":"Error on submission to New Relic.","errno":"ENOTFOUND","code":"ENOTFOUND","syscall":"getaddrinfo","stack":"Error: getaddrinfo ENOTFOUND collector-009.newrelic.com\n    at GetAddrInfoReqWrap.onlookup [as oncomplete] (dns.js:60:26)","message":"getaddrinfo ENOTFOUND collector-009.newrelic.com"}
{"v":0,"level":40,"name":"newrelic","hostname":"SatieMBP.local","pid":49628,"time":"2020-01-17T10:10:56.764Z","msg":"Errors during harvest!","component":"Harvest","errors":[{"errno":"ENOTFOUND","code":"ENOTFOUND","syscall":"getaddrinfo","hostname":"collector-009.newrelic.com"}]}
{"v":0,"level":40,"name":"newrelic","hostname":"collector-009.newrelic.com","pid":49628,"time":"2020-01-17T10:10:56.765Z","msg":"Error on submission to New Relic.","errno":"ENOTFOUND","code":"ENOTFOUND","syscall":"getaddrinfo","stack":"Error: getaddrinfo ENOTFOUND collector-009.newrelic.com\n    at GetAddrInfoReqWrap.onlookup [as oncomplete] (dns.js:60:26)","message":"getaddrinfo ENOTFOUND collector-009.newrelic.com"}
{"v":0,"level":40,"name":"newrelic","hostname":"SatieMBP.local","pid":49628,"time":"2020-01-17T10:11:56.773Z","msg":"Errors during harvest!","component":"Harvest","errors":[{"errno":"ENOTFOUND","code":"ENOTFOUND","syscall":"getaddrinfo","hostname":"collector-009.newrelic.com"}]}
{"v":0,"level":40,"name":"newrelic","hostname":"collector-009.newrelic.com","pid":49628,"time":"2020-01-17T10:11:56.774Z","msg":"Error on submission to New Relic.","errno":"ENOTFOUND","code":"ENOTFOUND","syscall":"getaddrinfo","stack":"Error: getaddrinfo ENOTFOUND collector-009.newrelic.com\n    at GetAddrInfoReqWrap.onlookup [as oncomplete] (dns.js:60:26)","message":"getaddrinfo ENOTFOUND collector-009.newrelic.com"}
